digraph {
    λ [color="#000000"
      ,shape=circle];
    a [color="#000000"
      ,shape=circle];
    aa [color="#000000"
       ,shape=circle];
    λ -> a [color="#000000"
           ,label=a];
    λ -> λ [color="#000000"
           ,label=b];
    a -> aa [color="#000000"
            ,label=a];
    a -> a [color="#000000"
           ,label=b];
    aa -> λ [color="#000000"
            ,label=a];
    aa -> aa [color="#000000"
             ,label=b];
}